cpu_wavedata.vcd
$date
	Wed Dec 02 11:15:06 2020
$end
$version
	Icarus Verilog
$end
$timescale
	100ps
$end
$scope module cpu_tb $end
$var wire 32 ! writedata_mem [31:0] $end
$var wire 8 " writedata [7:0] $end
$var wire 1 # write_mem $end
$var wire 1 $ write $end
$var wire 128 % readinst [127:0] $end
$var wire 32 & readdata_mem [31:0] $end
$var wire 8 ' readdata [7:0] $end
$var wire 1 ( read_mem $end
$var wire 1 ) read_instruction $end
$var wire 1 * read $end
$var wire 1 + busywait_mem_instruction $end
$var wire 1 , busywait_mem $end
$var wire 1 - busywait_inst $end
$var wire 1 . busywait $end
$var wire 6 / address_mem [5:0] $end
$var wire 6 0 address_instruction [5:0] $end
$var wire 8 1 address [7:0] $end
$var wire 32 2 PC [31:0] $end
$var wire 32 3 INSTRUCTION [31:0] $end
$var reg 1 4 CLK $end
$var reg 1 5 RESET $end
$var integer 32 6 i [31:0] $end
$scope module c $end
$var wire 1 4 clock $end
$var wire 1 5 reset $end
$var wire 1 $ write_access $end
$var wire 1 * read_access $end
$var wire 32 7 mem_readdata [31:0] $end
$var wire 1 , mem_busywait $end
$var wire 8 8 WRITEDATA_C [7:0] $end
$var wire 8 9 ADDRESS_C [7:0] $end
$var reg 1 . BUSYWAIT_C $end
$var reg 8 : READDATA_C [7:0] $end
$var reg 1 ; READ_C $end
$var reg 1 < WRITE_C $end
$var reg 1 = cache_hit $end
$var reg 1 > dirty $end
$var reg 3 ? index [2:0] $end
$var reg 6 @ mem_address [5:0] $end
$var reg 1 ( mem_read $end
$var reg 1 # mem_write $end
$var reg 32 A mem_writedata [31:0] $end
$var reg 3 B next_state [2:0] $end
$var reg 3 C offset [2:0] $end
$var reg 3 D state [2:0] $end
$var reg 3 E tag [2:0] $end
$var reg 1 F tag_matched $end
$var reg 1 G write_back_enable $end
$var reg 1 H write_memdata_en $end
$var integer 32 I i [31:0] $end
$upscope $end
$scope module cache_in $end
$var wire 1 4 clock $end
$var wire 1 5 reset $end
$var wire 128 J readinst [127:0] $end
$var wire 1 + busywait_mem $end
$var wire 32 K PC [31:0] $end
$var reg 6 L address_mem [5:0] $end
$var reg 1 - busywait $end
$var reg 1 M hit $end
$var reg 3 N index [2:0] $end
$var reg 32 O instruction [31:0] $end
$var reg 2 P offset [1:0] $end
$var reg 1 ) read $end
$var reg 3 Q tag [2:0] $end
$var reg 1 R tag_ch $end
$var reg 1 S valid $end
$var reg 1 T write_memdata $end
$var integer 32 U i [31:0] $end
$upscope $end
$scope module mem $end
$var wire 6 V address [5:0] $end
$var wire 1 4 clock $end
$var wire 1 ( read $end
$var wire 1 5 reset $end
$var wire 1 # write $end
$var wire 32 W writedata [31:0] $end
$var reg 1 , busywait $end
$var reg 1 X readaccess $end
$var reg 32 Y readdata [31:0] $end
$var reg 1 Z writeaccess $end
$var integer 32 [ i [31:0] $end
$upscope $end
$scope module mm $end
$var wire 6 \ address [5:0] $end
$var wire 1 4 clock $end
$var wire 1 ) read $end
$var reg 1 + busywait $end
$var reg 1 ] readaccess $end
$var reg 128 ^ readinst [127:0] $end
$upscope $end
$scope module mycpu $end
$var wire 1 4 CLK $end
$var wire 32 _ INSTRUCTION [31:0] $end
$var wire 1 5 RESET $end
$var wire 1 - busywait_inst $end
$var wire 1 . busywait_mem $end
$var wire 8 ` readdata [7:0] $end
$var wire 1 $ write_mem $end
$var wire 1 * read_mem $end
$var wire 1 a j $end
$var wire 1 b beq $end
$var wire 1 c ZERO $end
$var wire 8 d WRITEDATA_REG [7:0] $end
$var wire 1 e WRITE $end
$var wire 1 f SELECT4 $end
$var wire 1 g SELECT2 $end
$var wire 1 h SELECT1 $end
$var wire 8 i REGOUT2 [7:0] $end
$var wire 8 j REGOUT1 [7:0] $end
$var wire 32 k PC_next [31:0] $end
$var wire 8 l OPERAND2 [7:0] $end
$var wire 8 m MUX_OUT [7:0] $end
$var wire 8 n ALURESULT [7:0] $end
$var wire 3 o ALUOP [2:0] $end
$var reg 8 p COMLMNT [7:0] $end
$var reg 32 q OFFSET [31:0] $end
$var reg 32 r PC [31:0] $end
$var reg 1 s SELECT3 $end
$var reg 8 t address [7:0] $end
$var reg 1 u busywait $end
$var reg 32 v jump_target [31:0] $end
$var reg 32 w pc_4 [31:0] $end
$var reg 8 x writedata [7:0] $end
$scope module alu1 $end
$var wire 3 y SELECT [2:0] $end
$var wire 8 z RESULT [7:0] $end
$var wire 8 { DATA2 [7:0] $end
$var wire 8 | DATA1 [7:0] $end
$var reg 1 c ZERO $end
$scope module a1 $end
$var wire 8 } R [7:0] $end
$var wire 8 ~ DATA2 [7:0] $end
$var wire 8 !" DATA1 [7:0] $end
$upscope $end
$scope module b1 $end
$var wire 8 "" R [7:0] $end
$var wire 8 #" DATA2 [7:0] $end
$var wire 8 $" DATA1 [7:0] $end
$upscope $end
$scope module c1 $end
$var wire 8 %" R [7:0] $end
$var wire 8 &" DATA2 [7:0] $end
$var wire 8 '" DATA1 [7:0] $end
$upscope $end
$scope module f1 $end
$var wire 8 (" R [7:0] $end
$var wire 8 )" DATA2 [7:0] $end
$upscope $end
$scope module m1 $end
$var wire 8 *" a [7:0] $end
$var wire 8 +" b [7:0] $end
$var wire 8 ," c [7:0] $end
$var wire 8 -" d [7:0] $end
$var wire 3 ." SELECT [2:0] $end
$var reg 8 /" RESULT [7:0] $end
$upscope $end
$upscope $end
$scope module cntrl $end
$var wire 32 0" INSTRUCTION [31:0] $end
$var wire 1 - busywait $end
$var reg 3 1" ALUOP [2:0] $end
$var reg 8 2" OPCODE [7:0] $end
$var reg 1 h SELECT1 $end
$var reg 1 g SELECT2 $end
$var reg 1 f SELECT4 $end
$var reg 1 3" WRITE $end
$var reg 1 e WRITEN $end
$var reg 1 b beq $end
$var reg 1 a j $end
$var reg 1 * read_mem $end
$var reg 1 $ write_mem $end
$upscope $end
$scope module mux1 $end
$var wire 1 h SELECT $end
$var wire 8 4" b [7:0] $end
$var wire 8 5" a [7:0] $end
$var reg 8 6" c [7:0] $end
$upscope $end
$scope module mux2 $end
$var wire 1 g SELECT $end
$var wire 8 7" a [7:0] $end
$var wire 8 8" b [7:0] $end
$var reg 8 9" c [7:0] $end
$upscope $end
$scope module mux3 $end
$var wire 1 s SELECT $end
$var wire 32 :" a [31:0] $end
$var wire 32 ;" b [31:0] $end
$var reg 32 <" c [31:0] $end
$upscope $end
$scope module mux4 $end
$var wire 1 f SELECT $end
$var wire 8 =" a [7:0] $end
$var wire 8 >" b [7:0] $end
$var reg 8 ?" c [7:0] $end
$upscope $end
$scope module reg1 $end
$var wire 1 4 CLK $end
$var wire 8 @" IN [7:0] $end
$var wire 3 A" INADDRESS [2:0] $end
$var wire 8 B" OUT1 [7:0] $end
$var wire 3 C" OUT1ADDRESS [2:0] $end
$var wire 8 D" OUT2 [7:0] $end
$var wire 3 E" OUT2ADDRESS [2:0] $end
$var wire 1 5 RESET $end
$var wire 1 e WRITE $end
$var integer 32 F" i [31:0] $end
$var integer 32 G" j [31:0] $end
$upscope $end
$upscope $end
$upscope $end
$scope module cpu_tb $end
$scope module mycpu $end
$scope module reg1 $end
$var reg 8 H" \register[0] [7:0] $end
$upscope $end
$upscope $end
$upscope $end
$scope module cpu_tb $end
$scope module c $end
$var reg 32 I" \data[0] [31:0] $end
$upscope $end
$upscope $end
$scope module cpu_tb $end
$scope module c $end
$var reg 1 J" \Ddirty[0] $end
$upscope $end
$upscope $end
$scope module cpu_tb $end
$scope module c $end
$var reg 1 K" \valid[0] $end
$upscope $end
$upscope $end
$scope module cpu_tb $end
$scope module c $end
$var reg 3 L" \Dtag[0] [2:0] $end
$upscope $end
$upscope $end
$scope module cpu_tb $end
$scope module mem $end
$var reg 8 M" \memory_array[0] [7:0] $end
$upscope $end
$upscope $end
$scope module cpu_tb $end
$scope module cache_in $end
$var reg 128 N" \inst_cache[0] [127:0] $end
$upscope $end
$upscope $end
$scope module cpu_tb $end
$scope module cache_in $end
$var reg 3 O" \tag_inst[0] [2:0] $end
$upscope $end
$upscope $end
$scope module cpu_tb $end
$scope module cache_in $end
$var reg 1 P" \valid_inst[0] $end
$upscope $end
$upscope $end
$scope module cpu_tb $end
$scope module mycpu $end
$scope module reg1 $end
$var reg 8 Q" \register[1] [7:0] $end
$upscope $end
$upscope $end
$upscope $end
$scope module cpu_tb $end
$scope module c $end
$var reg 32 R" \data[1] [31:0] $end
$upscope $end
$upscope $end
$scope module cpu_tb $end
$scope module c $end
$var reg 1 S" \Ddirty[1] $end
$upscope $end
$upscope $end
$scope module cpu_tb $end
$scope module c $end
$var reg 1 T" \valid[1] $end
$upscope $end
$upscope $end
$scope module cpu_tb $end
$scope module c $end
$var reg 3 U" \Dtag[1] [2:0] $end
$upscope $end
$upscope $end
$scope module cpu_tb $end
$scope module mem $end
$var reg 8 V" \memory_array[1] [7:0] $end
$upscope $end
$upscope $end
$scope module cpu_tb $end
$scope module cache_in $end
$var reg 128 W" \inst_cache[1] [127:0] $end
$upscope $end
$upscope $end
$scope module cpu_tb $end
$scope module cache_in $end
$var reg 3 X" \tag_inst[1] [2:0] $end
$upscope $end
$upscope $end
$scope module cpu_tb $end
$scope module cache_in $end
$var reg 1 Y" \valid_inst[1] $end
$upscope $end
$upscope $end
$scope module cpu_tb $end
$scope module mycpu $end
$scope module reg1 $end
$var reg 8 Z" \register[2] [7:0] $end
$upscope $end
$upscope $end
$upscope $end
$scope module cpu_tb $end
$scope module c $end
$var reg 32 [" \data[2] [31:0] $end
$upscope $end
$upscope $end
$scope module cpu_tb $end
$scope module c $end
$var reg 1 \" \Ddirty[2] $end
$upscope $end
$upscope $end
$scope module cpu_tb $end
$scope module c $end
$var reg 1 ]" \valid[2] $end
$upscope $end
$upscope $end
$scope module cpu_tb $end
$scope module c $end
$var reg 3 ^" \Dtag[2] [2:0] $end
$upscope $end
$upscope $end
$scope module cpu_tb $end
$scope module mem $end
$var reg 8 _" \memory_array[2] [7:0] $end
$upscope $end
$upscope $end
$scope module cpu_tb $end
$scope module cache_in $end
$var reg 128 `" \inst_cache[2] [127:0] $end
$upscope $end
$upscope $end
$scope module cpu_tb $end
$scope module cache_in $end
$var reg 3 a" \tag_inst[2] [2:0] $end
$upscope $end
$upscope $end
$scope module cpu_tb $end
$scope module cache_in $end
$var reg 1 b" \valid_inst[2] $end
$upscope $end
$upscope $end
$scope module cpu_tb $end
$scope module mycpu $end
$scope module reg1 $end
$var reg 8 c" \register[3] [7:0] $end
$upscope $end
$upscope $end
$upscope $end
$scope module cpu_tb $end
$scope module c $end
$var reg 32 d" \data[3] [31:0] $end
$upscope $end
$upscope $end
$scope module cpu_tb $end
$scope module c $end
$var reg 1 e" \Ddirty[3] $end
$upscope $end
$upscope $end
$scope module cpu_tb $end
$scope module c $end
$var reg 1 f" \valid[3] $end
$upscope $end
$upscope $end
$scope module cpu_tb $end
$scope module c $end
$var reg 3 g" \Dtag[3] [2:0] $end
$upscope $end
$upscope $end
$scope module cpu_tb $end
$scope module mem $end
$var reg 8 h" \memory_array[3] [7:0] $end
$upscope $end
$upscope $end
$scope module cpu_tb $end
$scope module cache_in $end
$var reg 128 i" \inst_cache[3] [127:0] $end
$upscope $end
$upscope $end
$scope module cpu_tb $end
$scope module cache_in $end
$var reg 3 j" \tag_inst[3] [2:0] $end
$upscope $end
$upscope $end
$scope module cpu_tb $end
$scope module cache_in $end
$var reg 1 k" \valid_inst[3] $end
$upscope $end
$upscope $end
$scope module cpu_tb $end
$scope module mycpu $end
$scope module reg1 $end
$var reg 8 l" \register[4] [7:0] $end
$upscope $end
$upscope $end
$upscope $end
$scope module cpu_tb $end
$scope module c $end
$var reg 32 m" \data[4] [31:0] $end
$upscope $end
$upscope $end
$scope module cpu_tb $end
$scope module c $end
$var reg 1 n" \Ddirty[4] $end
$upscope $end
$upscope $end
$scope module cpu_tb $end
$scope module c $end
$var reg 1 o" \valid[4] $end
$upscope $end
$upscope $end
$scope module cpu_tb $end
$scope module c $end
$var reg 3 p" \Dtag[4] [2:0] $end
$upscope $end
$upscope $end
$scope module cpu_tb $end
$scope module mem $end
$var reg 8 q" \memory_array[4] [7:0] $end
$upscope $end
$upscope $end
$scope module cpu_tb $end
$scope module cache_in $end
$var reg 128 r" \inst_cache[4] [127:0] $end
$upscope $end
$upscope $end
$scope module cpu_tb $end
$scope module cache_in $end
$var reg 3 s" \tag_inst[4] [2:0] $end
$upscope $end
$upscope $end
$scope module cpu_tb $end
$scope module cache_in $end
$var reg 1 t" \valid_inst[4] $end
$upscope $end
$upscope $end
$scope module cpu_tb $end
$scope module mycpu $end
$scope module reg1 $end
$var reg 8 u" \register[5] [7:0] $end
$upscope $end
$upscope $end
$upscope $end
$scope module cpu_tb $end
$scope module c $end
$var reg 32 v" \data[5] [31:0] $end
$upscope $end
$upscope $end
$scope module cpu_tb $end
$scope module c $end
$var reg 1 w" \Ddirty[5] $end
$upscope $end
$upscope $end
$scope module cpu_tb $end
$scope module c $end
$var reg 1 x" \valid[5] $end
$upscope $end
$upscope $end
$scope module cpu_tb $end
$scope module c $end
$var reg 3 y" \Dtag[5] [2:0] $end
$upscope $end
$upscope $end
$scope module cpu_tb $end
$scope module mem $end
$var reg 8 z" \memory_array[5] [7:0] $end
$upscope $end
$upscope $end
$scope module cpu_tb $end
$scope module cache_in $end
$var reg 128 {" \inst_cache[5] [127:0] $end
$upscope $end
$upscope $end
$scope module cpu_tb $end
$scope module cache_in $end
$var reg 3 |" \tag_inst[5] [2:0] $end
$upscope $end
$upscope $end
$scope module cpu_tb $end
$scope module cache_in $end
$var reg 1 }" \valid_inst[5] $end
$upscope $end
$upscope $end
$scope module cpu_tb $end
$scope module mycpu $end
$scope module reg1 $end
$var reg 8 ~" \register[6] [7:0] $end
$upscope $end
$upscope $end
$upscope $end
$scope module cpu_tb $end
$scope module c $end
$var reg 32 !# \data[6] [31:0] $end
$upscope $end
$upscope $end
$scope module cpu_tb $end
$scope module c $end
$var reg 1 "# \Ddirty[6] $end
$upscope $end
$upscope $end
$scope module cpu_tb $end
$scope module c $end
$var reg 1 ## \valid[6] $end
$upscope $end
$upscope $end
$scope module cpu_tb $end
$scope module c $end
$var reg 3 $# \Dtag[6] [2:0] $end
$upscope $end
$upscope $end
$scope module cpu_tb $end
$scope module mem $end
$var reg 8 %# \memory_array[6] [7:0] $end
$upscope $end
$upscope $end
$scope module cpu_tb $end
$scope module cache_in $end
$var reg 128 &# \inst_cache[6] [127:0] $end
$upscope $end
$upscope $end
$scope module cpu_tb $end
$scope module cache_in $end
$var reg 3 '# \tag_inst[6] [2:0] $end
$upscope $end
$upscope $end
$scope module cpu_tb $end
$scope module cache_in $end
$var reg 1 (# \valid_inst[6] $end
$upscope $end
$upscope $end
$scope module cpu_tb $end
$scope module mycpu $end
$scope module reg1 $end
$var reg 8 )# \register[7] [7:0] $end
$upscope $end
$upscope $end
$upscope $end
$scope module cpu_tb $end
$scope module c $end
$var reg 32 *# \data[7] [31:0] $end
$upscope $end
$upscope $end
$scope module cpu_tb $end
$scope module c $end
$var reg 1 +# \Ddirty[7] $end
$upscope $end
$upscope $end
$scope module cpu_tb $end
$scope module c $end
$var reg 1 ,# \valid[7] $end
$upscope $end
$upscope $end
$scope module cpu_tb $end
$scope module c $end
$var reg 3 -# \Dtag[7] [2:0] $end
$upscope $end
$upscope $end
$scope module cpu_tb $end
$scope module mem $end
$var reg 8 .# \memory_array[7] [7:0] $end
$upscope $end
$upscope $end
$scope module cpu_tb $end
$scope module cache_in $end
$var reg 128 /# \inst_cache[7] [127:0] $end
$upscope $end
$upscope $end
$scope module cpu_tb $end
$scope module cache_in $end
$var reg 3 0# \tag_inst[7] [2:0] $end
$upscope $end
$upscope $end
$scope module cpu_tb $end
$scope module cache_in $end
$var reg 1 1# \valid_inst[7] $end
$upscope $end
$upscope $end
$scope module cpu_tb $end
$scope module mem $end
$var reg 8 2# \memory_array[8] [7:0] $end
$upscope $end
$upscope $end
$scope module cpu_tb $end
$scope module mem $end
$var reg 8 3# \memory_array[9] [7:0] $end
$upscope $end
$upscope $end
$scope module cpu_tb $end
$scope module mem $end
$var reg 8 4# \memory_array[10] [7:0] $end
$upscope $end
$upscope $end
$scope module cpu_tb $end
$scope module mem $end
$var reg 8 5# \memory_array[11] [7:0] $end
$upscope $end
$upscope $end
$scope module cpu_tb $end
$scope module mem $end
$var reg 8 6# \memory_array[12] [7:0] $end
$upscope $end
$upscope $end
$scope module cpu_tb $end
$scope module mem $end
$var reg 8 7# \memory_array[13] [7:0] $end
$upscope $end
$upscope $end
$scope module cpu_tb $end
$scope module mem $end
$var reg 8 8# \memory_array[14] [7:0] $end
$upscope $end
$upscope $end
$scope module cpu_tb $end
$scope module mem $end
$var reg 8 9# \memory_array[15] [7:0] $end
$upscope $end
$upscope $end
$scope module cpu_tb $end
$scope module mem $end
$var reg 8 :# \memory_array[16] [7:0] $end
$upscope $end
$upscope $end
$scope module cpu_tb $end
$scope module mem $end
$var reg 8 ;# \memory_array[17] [7:0] $end
$upscope $end
$upscope $end
$scope module cpu_tb $end
$scope module mem $end
$var reg 8 <# \memory_array[18] [7:0] $end
$upscope $end
$upscope $end
$scope module cpu_tb $end
$scope module mem $end
$var reg 8 =# \memory_array[19] [7:0] $end
$upscope $end
$upscope $end
$scope module cpu_tb $end
$scope module mem $end
$var reg 8 ># \memory_array[20] [7:0] $end
$upscope $end
$upscope $end
$scope module cpu_tb $end
$scope module mem $end
$var reg 8 ?# \memory_array[21] [7:0] $end
$upscope $end
$upscope $end
$scope module cpu_tb $end
$scope module mem $end
$var reg 8 @# \memory_array[22] [7:0] $end
$upscope $end
$upscope $end
$scope module cpu_tb $end
$scope module mem $end
$var reg 8 A# \memory_array[23] [7:0] $end
$upscope $end
$upscope $end
$scope module cpu_tb $end
$scope module mem $end
$var reg 8 B# \memory_array[24] [7:0] $end
$upscope $end
$upscope $end
$scope module cpu_tb $end
$scope module mem $end
$var reg 8 C# \memory_array[25] [7:0] $end
$upscope $end
$upscope $end
$scope module cpu_tb $end
$scope module mem $end
$var reg 8 D# \memory_array[26] [7:0] $end
$upscope $end
$upscope $end
$scope module cpu_tb $end
$scope module mem $end
$var reg 8 E# \memory_array[27] [7:0] $end
$upscope $end
$upscope $end
$scope module cpu_tb $end
$scope module mem $end
$var reg 8 F# \memory_array[28] [7:0] $end
$upscope $end
$upscope $end
$scope module cpu_tb $end
$scope module mem $end
$var reg 8 G# \memory_array[29] [7:0] $end
$upscope $end
$upscope $end
$scope module cpu_tb $end
$scope module mem $end
$var reg 8 H# \memory_array[30] [7:0] $end
$upscope $end
$upscope $end
$scope module cpu_tb $end
$scope module mem $end
$var reg 8 I# \memory_array[31] [7:0] $end
$upscope $end
$upscope $end
$enddefinitions $end
#0
$dumpvars
b0 I#
b0 H#
b0 G#
b0 F#
b0 E#
b0 D#
b0 C#
b0 B#
b0 A#
b0 @#
b0 ?#
b0 >#
b0 =#
b0 <#
b0 ;#
b0 :#
b0 9#
b0 8#
b0 7#
b0 6#
b0 5#
b0 4#
b0 3#
b0 2#
01#
bx 0#
bx /#
b0 .#
bx -#
0,#
0+#
bx *#
bx )#
0(#
bx '#
bx &#
b0 %#
bx $#
0##
0"#
bx !#
bx ~"
0}"
bx |"
bx {"
b0 z"
bx y"
0x"
0w"
bx v"
bx u"
0t"
bx s"
bx r"
b0 q"
bx p"
0o"
0n"
bx m"
bx l"
0k"
bx j"
bx i"
b0 h"
bx g"
0f"
0e"
bx d"
bx c"
0b"
bx a"
bx `"
b0 _"
bx ^"
0]"
0\"
bx ["
bx Z"
0Y"
bx X"
bx W"
b0 V"
bx U"
0T"
0S"
bx R"
bx Q"
0P"
bx O"
bx N"
b0 M"
bx L"
0K"
0J"
bx I"
bx H"
b0 G"
b0 F"
bx E"
bx D"
bx C"
bx B"
bx A"
bx @"
bx ?"
bx >"
bx ="
bx <"
bx ;"
bx :"
bx 9"
bx 8"
bx 7"
bx 6"
bx 5"
bx 4"
x3"
bx 2"
bx 1"
bx 0"
bx /"
bx ."
bx -"
bx ,"
bx +"
bx *"
bx )"
bx ("
bx '"
bx &"
bx %"
bx $"
bx #"
bx ""
bx !"
bx ~
bx }
bx |
bx {
bx z
bx y
bx x
bx w
bx v
xu
bx t
xs
bx r
bx q
bx p
bx o
bx n
bx m
bx l
bx k
bx j
bx i
xh
xg
xf
xe
bx d
xc
xb
xa
bx `
bx _
bx ^
0]
bx \
b100000000 [
0Z
bx Y
0X
b0xxxxxxxx W
bx V
b1000 U
xT
xS
xR
bx Q
bx P
bx O
bx N
xM
bx L
bx K
bx J
b1000 I
xH
xG
xF
bx E
b0 D
bx C
b0 B
b0xxxxxxxx A
bx @
b0 ?
x>
0=
x<
x;
bx :
bx 9
bx 8
bx 7
b100000 6
15
04
bx 3
bx 2
bx 1
bx 0
bx /
x.
0-
0,
0+
0*
0)
0(
bx '
bx &
bx %
0$
0#
bx "
b0xxxxxxxx !
$end
#9
0F
#40
0u
0.
b0 *#
b0 !#
b0 v"
b0 m"
b0 d"
b0 ["
b0 R"
b0 I"
b1000 I
01#
0(#
0}"
0t"
0k"
0b"
0Y"
0P"
b1000 U
14
#50
b0 )#
b0 ~"
b0 u"
b0 l"
b0 c"
b0 Z"
b0 Q"
b0 H"
b0 P
b0 N
b0 Q
b0 2
b0 K
b0 r
b1000 F"
05
#59
1u
0e
1]
1+
1T
b0 0
b0 L
b0 \
1-
1)
0M
#60
0S
b100 w
b100 :"
#80
04
#120
14
#160
04
#200
14
#240
04
#280
14
#320
04
#360
14
#400
04
#440
14
#480
04
#520
14
bx00001001 %
bx00001001 J
bx00001001 ^
#560
04
#600
14
#640
04
#680
14
#720
04
#760
14
#800
04
#840
14
#880
04
#920
14
bx0000000000001001 %
bx0000000000001001 J
bx0000000000001001 ^
#960
04
#1000
14
#1040
04
#1080
14
#1120
04
#1160
14
#1200
04
#1240
14
#1280
04
#1320
14
bx000000000000000000001001 %
bx000000000000000000001001 J
bx000000000000000000001001 ^
#1360
04
#1400
14
#1440
04
#1480
14
#1520
04
#1560
14
#1600
04
#1640
14
#1680
04
#1720
14
bx00000111000000000000000000001001 %
bx00000111000000000000000000001001 J
bx00000111000000000000000000001001 ^
#1760
04
#1800
14
#1840
04
#1880
14
#1920
04
#1960
14
#2000
04
#2040
14
#2080
04
#2120
14
bx0000000100000111000000000000000000001001 %
bx0000000100000111000000000000000000001001 J
bx0000000100000111000000000000000000001001 ^
#2160
04
#2200
14
#2240
04
#2280
14
#2320
04
#2360
14
#2400
04
#2440
14
#2480
04
#2520
14
bx000000000000000100000111000000000000000000001001 %
bx000000000000000100000111000000000000000000001001 J
bx000000000000000100000111000000000000000000001001 ^
#2560
04
#2600
14
#2640
04
#2680
14
#2720
04
#2760
14
#2800
04
#2840
14
#2880
04
#2920
14
bx00000001000000000000000100000111000000000000000000001001 %
bx00000001000000000000000100000111000000000000000000001001 J
bx00000001000000000000000100000111000000000000000000001001 ^
#2960
04
#3000
14
#3040
04
#3080
14
#3120
04
#3160
14
#3200
04
#3240
14
#3280
04
#3320
14
bx0000011100000001000000000000000100000111000000000000000000001001 %
bx0000011100000001000000000000000100000111000000000000000000001001 J
bx0000011100000001000000000000000100000111000000000000000000001001 ^
#3360
04
#3400
14
#3440
04
#3480
14
#3520
04
#3560
14
#3600
04
#3640
14
#3680
04
#3720
14
bx000000010000011100000001000000000000000100000111000000000000000000001001 %
bx000000010000011100000001000000000000000100000111000000000000000000001001 J
bx000000010000011100000001000000000000000100000111000000000000000000001001 ^
#3760
04
#3800
14
#3840
04
#3880
14
#3920
04
#3960
14
#4000
04
#4040
14
#4080
04
#4120
14
bx00000000000000010000011100000001000000000000000100000111000000000000000000001001 %
bx00000000000000010000011100000001000000000000000100000111000000000000000000001001 J
bx00000000000000010000011100000001000000000000000100000111000000000000000000001001 ^
#4160
04
#4200
14
#4240
04
#4280
14
#4320
04
#4360
14
#4400
04
#4440
14
#4480
04
#4520
14
bx0000000000000000000000010000011100000001000000000000000100000111000000000000000000001001 %
bx0000000000000000000000010000011100000001000000000000000100000111000000000000000000001001 J
bx0000000000000000000000010000011100000001000000000000000100000111000000000000000000001001 ^
#4560
04
#4600
14
#4640
04
#4680
14
#4720
04
#4760
14
#4800
04
#4840
14
#4880
04
#4920
14
bx000010100000000000000000000000010000011100000001000000000000000100000111000000000000000000001001 %
bx000010100000000000000000000000010000011100000001000000000000000100000111000000000000000000001001 J
bx000010100000000000000000000000010000011100000001000000000000000100000111000000000000000000001001 ^
#4960
04
#5000
14
#5040
04
#5080
14
#5120
04
#5160
14
#5200
04
#5240
14
#5280
04
#5320
14
bx00000000000010100000000000000000000000010000011100000001000000000000000100000111000000000000000000001001 %
bx00000000000010100000000000000000000000010000011100000001000000000000000100000111000000000000000000001001 J
bx00000000000010100000000000000000000000010000011100000001000000000000000100000111000000000000000000001001 ^
#5360
04
#5400
14
#5440
04
#5480
14
#5520
04
#5560
14
#5600
04
#5640
14
#5680
04
#5720
14
bx0000000100000000000010100000000000000000000000010000011100000001000000000000000100000111000000000000000000001001 %
bx0000000100000000000010100000000000000000000000010000011100000001000000000000000100000111000000000000000000001001 J
bx0000000100000000000010100000000000000000000000010000011100000001000000000000000100000111000000000000000000001001 ^
#5760
04
#5800
14
#5840
04
#5880
14
#5920
04
#5960
14
#6000
04
#6040
14
#6080
04
#6120
14
bx000000000000000100000000000010100000000000000000000000010000011100000001000000000000000100000111000000000000000000001001 %
bx000000000000000100000000000010100000000000000000000000010000011100000001000000000000000100000111000000000000000000001001 J
bx000000000000000100000000000010100000000000000000000000010000011100000001000000000000000100000111000000000000000000001001 ^
#6160
04
#6200
14
#6240
04
#6280
14
#6320
04
#6360
14
#6400
04
#6440
14
#6480
04
#6520
0)
14
0]
0+
b1011000000000000000100000000000010100000000000000000000000010000011100000001000000000000000100000111000000000000000000001001 %
b1011000000000000000100000000000010100000000000000000000000010000011100000001000000000000000100000111000000000000000000001001 J
b1011000000000000000100000000000010100000000000000000000000010000011100000001000000000000000100000111000000000000000000001001 ^
#6530
0T
1P"
b0 O"
b1011000000000000000100000000000010100000000000000000000000010000011100000001000000000000000100000111000000000000000000001001 N"
#6540
1S
0R
#6549
0u
xe
0-
1M
#6559
b0 A"
b0 C"
b0 i
b0 5"
b0 D"
b1 E"
b1001 7"
b0 q
b111 2"
b111000000000000000000001001 3
b111000000000000000000001001 O
b111000000000000000000001001 _
b111000000000000000000001001 0"
#6560
04
#6569
b100 k
b100 <"
1e
0s
b1001 l
b1001 {
b1001 ~
b1001 #"
b1001 &"
b1001 )"
b1001 9"
b0 m
b0 6"
b0 8"
b0 p
b0 4"
13"
0b
0a
0f
0g
0h
b0 o
b0 y
b0 ."
b0 1"
#6579
b1001 d
b1001 ?"
b1001 @"
b1001 1
b1001 9
b1001 t
0c
b1001 n
b1001 z
b1001 /"
b1001 ="
b0 "
b0 8
b0 x
bx1xx1 %"
bx1xx1 -"
b0x00x ""
b0x00x ,"
b1001 ("
b1001 *"
b0 j
b0 |
b0 !"
b0 $"
b0 '"
b0 B"
b100 v
b100 ;"
#6589
b1001 %"
b1001 -"
b0 ""
b0 ,"
#6599
b1001 }
b1001 +"
#6600
14
#6610
b1 P
b1001 H"
b100 2
b100 K
b100 r
#6620
b1 l
b1 {
b1 ~
b1 #"
b1 &"
b1 )"
b1 9"
b1 A"
b1 7"
b100 q
b1000 k
b1000 <"
b111000000010000000000000001 3
b111000000010000000000000001 O
b111000000010000000000000001 _
b111000000010000000000000001 0"
b1000 w
b1000 :"
#6630
b1 d
b1 ?"
b1 @"
b1 1
b1 9
b1 t
b1 n
b1 z
b1 /"
b1 ="
b1001 "
b1001 8
b1001 x
b1 %"
b1 -"
b1 ("
b1 *"
b1001 j
b1001 |
b1001 !"
b1001 $"
b1001 '"
b1001 B"
#6640
b1001 %"
b1001 -"
b1 ""
b1 ,"
b1100 v
b1100 ;"
04
#6650
b1010 }
b1010 +"
#6680
14
#6690
b1 m
b1 6"
b1 8"
b10 P
b1 Q"
b1 i
b1 5"
b1 D"
b1000 2
b1000 K
b1000 r
#6700
b0 A"
b1010 2"
b0 q
b1100 k
b1100 <"
b1010000000000000000000000001 3
b1010000000000000000000000001 O
b1010000000000000000000000001 _
b1010000000000000000000000001 0"
b11111111 p
b11111111 4"
b1100 w
b1100 :"
#6710
1u
1<
1.
0e
bx d
bx ?"
bx @"
1$
03"
1f
1g
#6720
b1 B
0>
b1 C
b0 E
04
#6760
1X
1,
1H
bx !
bx A
bx W
b0 /
b0 @
b0 V
1(
b1 B
b1 D
14
#6800
04
#6840
14
#6880
04
#6920
14
#6960
04
#7000
14
#7040
04
#7080
14
#7120
04
#7160
14
#7200
04
#7240
14
bx00000000 &
bx00000000 7
bx00000000 Y
#7280
04
#7320
14
#7360
04
#7400
14
#7440
04
#7480
14
#7520
04
#7560
14
#7600
04
#7640
14
bx0000000000000000 &
bx0000000000000000 7
bx0000000000000000 Y
#7680
04
#7720
14
#7760
04
#7800
14
#7840
04
#7880
14
#7920
04
#7960
14
#8000
04
#8040
14
bx000000000000000000000000 &
bx000000000000000000000000 7
bx000000000000000000000000 Y
#8080
04
#8120
14
#8160
04
#8200
14
#8240
04
#8280
14
#8320
04
#8360
14
#8400
04
#8440
b0xxxxxxxx !
b0xxxxxxxx A
b0xxxxxxxx W
bx /
bx @
bx V
0(
b0 D
b1 B
14
0X
0,
b0 &
b0 7
b0 Y
#8450
0H
1K"
0J"
b0 L"
b0 I"
#8459
b0 B
1=
1F
#8480
04
#8520
0u
0.
0<
1J"
14
#8530
b11 P
b1100 2
b1100 K
b1100 r
b100100000000 I"
